
CUPL(WM)        5.0a  Serial# 60008009
Device          g16v8s  Library DLIB-h-40-9
Created         Thu Sep 28 15:36:20 2017
Name            LAB2 
Partno          00 
Revision        01 
Date            9/28/2017 
Designer        Engineer 
Company         University of Colorado at Boulder 
Assembly        None 
Location        
*QP20 
*QF2194 
*G0 
*F0 
*L01280 11111111111111111111111101111111
*L01312 11110111111111111111111111111111
*L01536 11111111111101110111011101111111
*L01792 01110111111111111111111111111111
*L02048 00000101001100000011000000100000
*L02112 00000000111110001111111111111111
*L02144 11111111111111111111111111111111
*L02176 111111111111111110
*C1880
*9498