:03000000020021DA
:03000B0002025D91
:10002100752548752645752747752844752945E581
:100031002579307B057869BB0504E525801FBB0464
:1000410004E5268018BB0304E5278011BB0204E503
:1000510028800ABB0104E5298003020213FABA4190
:100061000A770409770C7602020208BA4210770C6B
:100071000977040977040977047604020208BA4370
:1000810010770C09770409770C09770476040202CA
:1000910008BA440D770C0977040977047603020244
:1000A10008BA450777047601020208BA46107704B8
:1000B10009770409770C0977047604020208BA4724
:1000C1000D770C09770C0977047603020208BA4808
:1000D100107704097704097704097704760402028A
:1000E10008BA490A77040977047602020208BA4A73
:1000F10010770409770C09770C09770C7604020252
:1001010008BA4B0D770C09770409770C76030202C4
:1001110008BA4C10770409770C097704097704763B
:1001210004020208BA4D0A770C09770C7602020222
:1001310008BA4E0A770C0977047602020208BA4F10
:100141000D770C09770C09770C7603020208BA5077
:1001510010770409770C09770C09770476040202F9
:1001610008BA5110770C09770C09770409770C76D6
:1001710004020208BA520D770409770C0977047654
:1001810003020208BA530D7704097704097704764C
:1001910003020208BA5407770C7601020208BA5525
:1001A1000D770409770409770C7603020208BA5621
:1001B10010770409770409770409770C76040202A1
:1001C10008BA570D770409770C09770C76030202F8
:1001D10008BA5810770C09770409770409770C7667
:1001E10004020208BA5910770C09770409770C093F
:1001F100770C7604020208BA5A0D770C09770C09BC
:100201007704097704760400DB030202130809026C
:10021100003F0075640875650575A88275890175CB
:100221008C4C758A08783079697B04B291D28C3014
:100231008DFD00D530F7B291D28C308DFD00DBF809
:10024100088630D569E3098769D28C308DFD00D5E8
:1002510064F7756408D565D1C29180FEC28DC28CE8
:07026100758C4C758A083210
:00000001FF